\relax 
\catcode `"\active 
\catcode `<\active 
\catcode `>\active 
\@nameuse{es@quoting}
\babel@aux{spanish}{}
\@writefile{lof}{\contentsline {figure}{\numberline {1}{\ignorespaces Representaci\IeC {\'o}n del problema}}{3}}
\@writefile{lof}{\contentsline {figure}{\numberline {2}{\ignorespaces Esquema de localizaci\IeC {\'o}n de valores}}{4}}
